{
  "project_info": {
    "project_number": "797841456069",
    "project_id": "clone-tiktok-36d1c",
    "storage_bucket": "clone-tiktok-36d1c.appspot.com"
  },
  "client": [
    {
      "client_info": {
        "mobilesdk_app_id": "1:797841456069:android:ae23af7af7fd5fa8b3e9ac",
        "android_client_info": {
          "package_name": "com.example.github_app"
        }
      },
      "oauth_client": [
        {
          "client_id": "797841456069-uifa61b4ihm794413fep8sslqumjrtq1.apps.googleusercontent.com",
          "client_type": 3
        }
      ],
      "api_key": [
        {
          "current_key": "AIzaSyDOIBKPS97_ZmyiTdPxJFSkvRnTUjFhrTE"
        }
      ],
      "services": {
        "appinvite_service": {
          "other_platform_oauth_client": [
            {
              "client_id": "797841456069-uifa61b4ihm794413fep8sslqumjrtq1.apps.googleusercontent.com",
              "client_type": 3
            }
          ]
        }
      }
    }
  ],
  "configuration_version": "1"
}